{
  "feature": "mekanismaaa:ore_osmium_middle",
  "placement": [
    {
      "type": "mekanism:disableable",
      "oreVeinType": {
        "type": "osmium",
        "index": 1
      },
      "retroGen": false
    },
    {
      "type": "minecraft:count",
      "count": {
        "type": "mekanism:configurable_constant",
        "oreVeinType": {
          "type": "osmium",
          "index": 1
        }
      }
    },
    {
      "type": "minecraft:in_square"
    },
    {
      "type": "minecraft:height_range",
      "height": {
        "type": "mekanism:configurable",
        "oreVeinType": {
          "type": "osmium",
          "index": 1
        }
      }
    },
    {
      "type": "minecraft:biome"
    }
  ]
}